<?xml version="1.0" encoding="utf-8"?>
<!-- Generator: Adobe Illustrator 16.0.0, SVG Export Plug-In . SVG Version: 6.00 Build 0)  -->
<!DOCTYPE svg PUBLIC "-//W3C//DTD SVG 1.1//EN" "http://www.w3.org/Graphics/SVG/1.1/DTD/svg11.dtd">
<svg version="1.1" id="Livello_1" xmlns="http://www.w3.org/2000/svg" xmlns:xlink="http://www.w3.org/1999/xlink" x="0px" y="0px"
	 width="118.792px" height="93.289px" viewBox="0 0 118.792 93.289" enable-background="new 0 0 118.792 93.289"
	 xml:space="preserve">
<path id="baffi2" fill="#002334" d="M102.027,49.548L71.737,19.268c-3.405-3.406-7.877-5.09-12.34-5.063
	c-4.463-0.027-8.935,1.657-12.341,5.063L16.767,49.548c-6.757,6.756-6.757,17.713,0.001,24.469c6.756,6.758,17.711,6.756,24.467,0
	L59.396,55.86l18.162,18.157c6.756,6.756,17.711,6.758,24.468,0C108.782,67.261,108.782,56.304,102.027,49.548z"/>
</svg>
