<?xml version="1.0" encoding="utf-8"?>
<!-- Generator: Adobe Illustrator 16.0.0, SVG Export Plug-In . SVG Version: 6.00 Build 0)  -->
<!DOCTYPE svg PUBLIC "-//W3C//DTD SVG 1.1//EN" "http://www.w3.org/Graphics/SVG/1.1/DTD/svg11.dtd">
<svg version="1.1" id="Livello_1" xmlns="http://www.w3.org/2000/svg" xmlns:xlink="http://www.w3.org/1999/xlink" x="0px" y="0px"
	 width="367.114px" height="319.463px" viewBox="0 0 367.114 319.463" enable-background="new 0 0 367.114 319.463"
	 xml:space="preserve">
<g id="capelli5">
	<path fill="#012538" d="M316.963,166.392l-11.965-0.32l-26.434,0.073v17.83c11.604,0.904,20.746,10.609,20.746,22.44
		c0,11.854-9.161,21.563-20.781,22.45c-0.153,6.555-0.976,12.941-2.392,19.104c7.896,6.363,17.931,10.179,28.86,10.179l58.005,0.321
		c0,0,0-20.614,0-46.039C363.003,187.004,342.391,166.392,316.963,166.392z"/>
	<path fill="#012538" d="M88.578,228.515c-11.629-0.889-20.777-10.597-20.777-22.45c0-11.832,9.133-21.537,20.747-22.44v-17.479
		l-26.434-0.073l-11.964,0.32c-25.427,0-46.04,20.612-46.04,46.038c0,25.425,0,46.039,0,46.039l58.004-0.321
		c10.932,0,20.965-3.818,28.859-10.184C89.532,241.693,88.708,235.189,88.578,228.515z"/>
	<path opacity="0.1" d="M316.963,166.392l-11.965-0.32l-26.434,0.073v17.83c11.604,0.904,20.746,10.609,20.746,22.44
		c0,11.854-9.161,21.563-20.781,22.45c-0.153,6.555-0.976,12.941-2.392,19.104c7.896,6.363,17.931,10.179,28.86,10.179l58.005,0.321
		c0,0,0-20.614,0-46.039C363.003,187.004,342.391,166.392,316.963,166.392z"/>
	<path opacity="0.1" d="M88.578,228.515c-11.629-0.889-20.777-10.597-20.777-22.45c0-11.832,9.133-21.537,20.747-22.44v-17.479
		l-26.434-0.073l-11.964,0.32c-25.427,0-46.04,20.612-46.04,46.038c0,25.425,0,46.039,0,46.039l58.004-0.321
		c10.932,0,20.965-3.818,28.859-10.184C89.532,241.693,88.708,235.189,88.578,228.515z"/>
	<path fill="#C52C54" d="M88.547,163.216h-12.58c-5.21,0-9.434,4.225-9.434,9.435s4.224,9.435,9.434,9.435h12.58V163.216z"/>
	<path fill="#C52C54" d="M291.144,163.216h-12.579v18.869h12.579c5.212,0,9.437-4.225,9.437-9.435S296.356,163.216,291.144,163.216z
		"/>
	<path fill="#012538" d="M139.622,60.994h-20.137c-24.263,0-43.934,19.673-43.934,43.934v64.069h64.07
		c24.264,0,43.934-19.671,43.934-43.933c0,24.262,19.67,43.933,43.937,43.933h64.068v-64.069c0-24.261-19.672-43.934-43.935-43.934
		h-20.134"/>
	<path opacity="0.2" fill="#FFFFFF" d="M201.567,89.562c2.526,0,4.576,2.05,4.576,4.578v25.449
		c0,16.217,13.194,29.412,29.412,29.412l0.124,0.001l8.831,0.236c2.527,0.067,4.521,2.171,4.455,4.699
		c-0.069,2.527-2.138,4.514-4.701,4.453l-8.771-0.234c-21.239-0.034-38.507-17.321-38.507-38.567V94.14
		C196.987,91.611,199.038,89.562,201.567,89.562z"/>
</g>
</svg>
