<?xml version="1.0" encoding="utf-8"?>
<!-- Generator: Adobe Illustrator 16.0.0, SVG Export Plug-In . SVG Version: 6.00 Build 0)  -->
<!DOCTYPE svg PUBLIC "-//W3C//DTD SVG 1.1//EN" "http://www.w3.org/Graphics/SVG/1.1/DTD/svg11.dtd">
<svg version="1.1" id="Livello_1" xmlns="http://www.w3.org/2000/svg" xmlns:xlink="http://www.w3.org/1999/xlink" x="0px" y="0px"
	 width="289.262px" height="271.261px" viewBox="0 0 289.262 271.261" enable-background="new 0 0 289.262 271.261"
	 xml:space="preserve">
<g id="capelli4">
	<path fill="#012538" d="M144.63,44.397C66.356,44.397,2.9,116.022,2.9,204.378v22.485h33.916
		c-4.857-4.132-7.941-10.286-7.941-17.164c0-11.832,9.133-21.537,20.747-22.44V181h35.194v-42.357l28.885,31.506v-22.505
		L143.722,181h95.918v6.609c11.604,0.904,20.746,10.609,20.746,22.44c0,6.686-2.916,12.688-7.541,16.813h33.517v-22.485
		C286.361,116.022,222.903,44.397,144.63,44.397z"/>
	<path opacity="0.3" fill="#D3D3D3" d="M144.63,53.533c-61.722,0-111.759,50.037-111.759,111.76V181h51.945v-42.357l28.885,31.506
		v-22.505L143.722,181h112.669v-15.707C256.391,103.57,206.351,53.533,144.63,53.533z"/>
</g>
</svg>
